<?xml version="1.0" encoding="UTF-8" standalone="no"?>
<!-- Created with Inkscape (http://www.inkscape.org/) -->

<svg
   width="600"
   height="150"
   viewBox="0 0 158.75 39.687501"
   version="1.1"
   id="svg895"
   inkscape:version="1.3.2 (091e20ef0f, 2023-11-25)"
   sodipodi:docname="paralivre-org-logo-preto.svg"
   inkscape:export-filename="../png/paralivre-org-logo-preto.png"
   inkscape:export-xdpi="327.67999"
   inkscape:export-ydpi="327.67999"
   xmlns:inkscape="http://www.inkscape.org/namespaces/inkscape"
   xmlns:sodipodi="http://sodipodi.sourceforge.net/DTD/sodipodi-0.dtd"
   xmlns="http://www.w3.org/2000/svg"
   xmlns:svg="http://www.w3.org/2000/svg"
   xmlns:rdf="http://www.w3.org/1999/02/22-rdf-syntax-ns#"
   xmlns:cc="http://creativecommons.org/ns#"
   xmlns:dc="http://purl.org/dc/elements/1.1/">
  <defs
     id="defs889">
    <filter
       style="color-interpolation-filters:sRGB"
       id="filter3326-8-6-1"
       inkscape:label="Invert"
       x="0"
       y="0"
       width="1"
       height="1"
       inkscape:menu="Color"
       inkscape:menu-tooltip="Invert colors">
      <feColorMatrix
         id="feColorMatrix3328-0-8-9"
         type="saturate"
         values="1"
         result="fbSourceGraphic" />
      <feColorMatrix
         id="feColorMatrix3330-4-9-0"
         in="fbSourceGraphic"
         values="-1 0 0 0 1 0 -1 0 0 1 0 0 -1 0 1 0 0 0 1 0 " />
    </filter>
  </defs>
  <sodipodi:namedview
     id="base"
     pagecolor="#ffffff"
     bordercolor="#666666"
     borderopacity="1.0"
     inkscape:pageopacity="0.0"
     inkscape:pageshadow="2"
     inkscape:zoom="1.3033333"
     inkscape:cx="298.46548"
     inkscape:cy="74.808186"
     inkscape:document-units="mm"
     inkscape:current-layer="layer1"
     showgrid="false"
     units="px"
     inkscape:window-width="1920"
     inkscape:window-height="995"
     inkscape:window-x="1920"
     inkscape:window-y="0"
     inkscape:window-maximized="1"
     inkscape:showpageshadow="2"
     inkscape:pagecheckerboard="0"
     inkscape:deskcolor="#d1d1d1" />
  <metadata
     id="metadata892">
    <rdf:RDF>
      <cc:Work
         rdf:about="">
        <dc:format>image/svg+xml</dc:format>
        <dc:type
           rdf:resource="http://purl.org/dc/dcmitype/StillImage" />
        <dc:title />
      </cc:Work>
    </rdf:RDF>
  </metadata>
  <g
     inkscape:groupmode="layer"
     id="layer2"
     inkscape:label="retangulo"
     transform="translate(0,-257.31248)"
     style="display:none">
    <rect
       style="fill:#ffffff;fill-opacity:1;stroke-width:0.24821806"
       id="rect1471"
       width="158.75"
       height="39.6875"
       x="-1.4210855e-14"
       y="257.3125" />
  </g>
  <g
     inkscape:label="ParaLivre.org branco"
     inkscape:groupmode="layer"
     id="layer1"
     transform="translate(0,-257.31248)"
     style="display:none">
    <text
       inkscape:export-ydpi="42.79805"
       inkscape:export-xdpi="42.79805"
       inkscape:export-filename="/home/asegundo/Documents/CamisetaPotilivrePreta.png"
       id="text1001"
       y="49.055988"
       x="-3.6783853"
       style="font-style:normal;font-weight:normal;line-height:0%;font-family:sans-serif;letter-spacing:0px;word-spacing:0px;display:inline;fill:#ffffff;fill-opacity:1;stroke:none;filter:url(#filter3326-8-6-1)"
       xml:space="preserve"
       transform="matrix(0.33141693,0,0,0.33141693,3.4738345,266.5729)"><tspan
         id="tspan999"
         style="font-style:normal;font-variant:normal;font-weight:normal;font-stretch:normal;font-size:66.6667px;line-height:1.25;font-family:'DejaVu Serif';-inkscape-font-specification:'DejaVu Serif';fill:#000000;fill-opacity:1"
         y="49.055988"
         x="-3.6783853"
         sodipodi:role="line">ParaLivre.org</tspan></text>
  </g>
  <g
     transform="translate(0,-257.31248)"
     id="g1496"
     inkscape:groupmode="layer"
     inkscape:label="ParaLivre.org preto"
     style="display:inline">
    <text
       transform="matrix(0.33141693,0,0,0.33141693,3.4738345,266.5729)"
       xml:space="preserve"
       style="font-style:normal;font-weight:normal;line-height:0%;font-family:sans-serif;letter-spacing:0px;word-spacing:0px;display:inline;fill:#ffffff;fill-opacity:1;stroke:none;filter:url(#filter3326-8-6-1)"
       x="-3.6783853"
       y="49.055988"
       id="text1494"
       inkscape:export-filename="/home/asegundo/Documents/CamisetaPotilivrePreta.png"
       inkscape:export-xdpi="42.79805"
       inkscape:export-ydpi="42.79805"><tspan
         sodipodi:role="line"
         x="-3.6783853"
         y="49.055988"
         style="font-style:normal;font-variant:normal;font-weight:normal;font-stretch:normal;font-size:66.6667px;line-height:1.25;font-family:'DejaVu Serif';-inkscape-font-specification:'DejaVu Serif';fill:#ffffff"
         id="tspan1492">ParaLivre.org</tspan></text>
  </g>
</svg>
